Exploring US Census data in R with tidycensus
…
---

## "Tidy" Census data

```r
income <- get_acs(geography = "state", table = "B19001")
income
```

```
## # A tibble: 884 x 5
##    GEOID NAME    variable   estimate   moe
##    <chr> <chr>   <chr>         <dbl> <dbl>
##  1 01    Alabama B19001_001  1851061  5444
##  2 01    Alabama B19001_002   179345  2820
##  3 01    Alabama B19001_003   126347  2394
##  4 01    Alabama B19001_004   118846  2556
##  5 01    Alabama B19001_005   114040  2021
##  6 01    Alabama B19001_006   105954  2142
##  7 01    Alabama B19001_007   101692  1983
##  8 01    Alabama B19001_008    93118  2053
##  9 01    Alabama B19001_009    90043  1989
## 10 01    Alabama B19001_010    75980  1629
## # ... with 874 more rows
```

---

## "Wide" Census data

```r
inc_wide <- get_acs(geography = "state", table = "B19001", 
                    output = "wide")
inc_wide
```

```
## # A tibble: 52 x 36
##    GEOID NAME  B19001_001E B19001_001M B19001_002E B19001_002M B19001_003E
##    <chr> <chr>       <dbl>       <dbl>       <dbl>       <dbl>       <dbl>
##  1 01    Alab~     1851061        5444      179345        2820      126347
##  2 02    Alas~      250235        1399        9216         576        8418
##  3 04    Ariz~     2448919        7179      183573        2815      125264
##  4 05    Arka~     1141480        3883      101637        2052       82519
##  5 06    Cali~    12807387       18852      728895        6027      629347
##  6 08    Colo~     2051616        4112      114990        2492       80302
##  7 09    Conn~     1354713        3509       75787        1961       50565
##  8 10    Dela~      348051        1568       20271         829       12613
##  9 11    Dist~      276546        1294       28179        1034       12205
## 10 12    Flor~     7393262       22885      556637        4436      398394
## # ... with 42 more rows, and 29 more variables: B19001_003M <dbl>,
## #   B19001_004E <dbl>, B19001_004M <dbl>, B19001_005E <dbl>,
## #   B19001_005M <dbl>, B19001_006E <dbl>, B19001_006M <dbl>,
## #   B19001_007E <dbl>, B19001_007M <dbl>, B19001_008E <dbl>,
## #   B19001_008M <dbl>, B19001_009E <dbl>, B19001_009M <dbl>,
## #   B19001_010E <dbl>, B19001_010M <dbl>, B19001_011E <dbl>,
## #   B19001_011M <dbl>, B19001_012E <dbl>, B19001_012M <dbl>,
## #   B19001_013E <dbl>, B19001_013M <dbl>, B19001_014E <dbl>,
## #   B19001_014M <dbl>, B19001_015E <dbl>, B19001_015M <dbl>,
…
